[
  {
    "type": "configuration/entityTypes/MedicinalProduct",
    "attributes": {
      "Name": [
        {
          "value": "Xylanol PM Extra Strength Caplets 24 Count"
        }
      ],
      "Market": [
        {
          "value": "North America"
        }
      ],
      "BrandName": [
        {
          "value": "Xylanol"
        }
      ],
      "GenericName": [
        {
          "value": "Acetaminophen"
        }
      ],
      "Type": [
        {
          "value": "Branded"
        }
      ],
      "ProductStrength": [
        {
          "value": {
            "NumeratorValue": [
              {
                "value": "500"
              }
            ],
            "NumeratorUnit": [
              {
                "value": "mg"
              }
            ],
            "DenominatorUnit": [
              {
                "value": "each"
              }
            ]
          }
        }
      ],
      "DoseForm": [
        {
          "value": "Caplet"
        }
      ],
      "Dose": [
        {
          "value": "2"
        }
      ],
      "PackageType": [
        {
          "value": "Carton"
        }
      ],
      "PackageCount": [
        {
          "value": "24"
        }
      ],
      "PackageHeight": [
        {
          "value": {
            "UnitOfMeasure": [
              {
                "value": "Centimeter"
              }
            ],
            "Value": [
              {
                "value": "5"
              }
            ]
          }
        }
      ],
      "Indication": [
        {
          "value": {
            "Type": [
              {
                "value": "minor aches"
              }
            ],
            "Language": [
              {
                "value": "English"
              }
            ],
            "RegulatoryApprovalDate": [
              {
                "value": "1956-05-09T00:00:00.000+0000"
              }
            ],
            "MarketAuthorizationNumber": [
              {
                "value": "1234567"
              }
            ],
            "MarketingAuthorizationDate": [
              {
                "value": "1956-05-11T00:00:00.000+0000"
              }
            ]
          }
        },
        {
          "value": {
            "Type": [
              {
                "value": "backache"
              }
            ],
            "Language": [
              {
                "value": "English"
              }
            ],
            "RegulatoryApprovalDate": [
              {
                "value": "1956-05-09T00:00:00.000+0000"
              }
            ],
            "MarketAuthorizationNumber": [
              {
                "value": "123456"
              }
            ],
            "MarketingAuthorizationDate": [
              {
                "value": "1956-05-11T00:00:00.000+0000"
              }
            ]
          }
        },
        {
          "value": {
            "Type": [
              {
                "value": "headache"
              }
            ],
            "Language": [
              {
                "value": "English"
              }
            ],
            "RegulatoryApprovalDate": [
              {
                "value": "1956-05-09T00:00:00.000+0000"
              }
            ],
            "MarketingAuthorizationDate": [
              {
                "value": "1956-05-12T00:00:00.000+0000"
              }
            ]
          }
        },
        {
          "value": {
            "Type": [
              {
                "value": "pain"
              }
            ],
            "Language": [
              {
                "value": "English"
              }
            ],
            "RegulatoryApprovalDate": [
              {
                "value": "1956-05-09T00:00:00.000+0000"
              }
            ],
            "MarketAuthorizationNumber": [
              {
                "value": "123456"
              }
            ],
            "MarketingAuthorizationDate": [
              {
                "value": "1956-05-11T00:00:00.000+0000"
              }
            ]
          }
        }
      ],
      "IsPrescriptionProduct": [
        {
          "value": "false"
        }
      ],
      "Identifiers": [
        {
          "value": {
            "Type": [
              {
                "value": "APPT"
              }
            ],
            "Status": [
              {
                "value": "Active"
              }
            ],
            "DeactivationReasonCode": [
              {
                "value": "26"
              }
            ],
            "ID": [
              {
                "value": "1234-4324"
              }
            ]
          }
        }
      ],
      "PackageWeight": [
        {
          "value": {
            "UnitOfMeasure": [
              {
                "value": "gram"
              }
            ],
            "Value": [
              {
                "value": "3"
              }
            ]
          }
        }
      ],
      "Pricing": [
        {
          "value": {
            "Type": [
              {
                "value": "AWP"
              }
            ],
            "Price": [
              {
                "value": "20.52"
              }
            ],
            "Currency": [
              {
                "value": "USD"
              }
            ]
          }
        }
      ]
    },
    "crosswalks": [
      {
        "type": "configuration/sources/FDA",
        "value": "entities/UHPbifV"
      }
    ]
  },
  {
    "type": "configuration/entityTypes/MedicinalProduct",
    "attributes": {
      "Name": [
        {
          "value": "Palbrowns Pain Reliever PM Extra Strength, Gel Cap"
        }
      ],
      "Market": [
        {
          "value": "North America"
        }
      ],
      "BrandName": [
        {
          "value": "Palbrowns"
        }
      ],
      "Type": [
        {
          "value": "Generic"
        }
      ],
      "DoseForm": [
        {
          "value": "Gel Cap"
        }
      ],
      "Dose": [
        {
          "value": "2"
        }
      ],
      "PackageType": [
        {
          "value": "Blister Pack"
        }
      ],
      "PackageCount": [
        {
          "value": "24"
        }
      ]
    },
    "crosswalks": [
      {
        "type": "configuration/sources/FDA",
        "value": "entities/cdi5vMc"
      }
    ]
  },
  {
    "type": "configuration/entityTypes/Organization",
    "attributes": {
      "Name": [
        {
          "value": "McNeer Consumer Healthcare"
        }],
        "Addresses": [
          {
                "label": "Business : 307 Powhatan Ave, Columbus, Ohio",
                "value": {
                    "AddressType": [
                        {
                            "type": "configuration/entityTypes/Organization/attributes/Addresses/attributes/AddressType",
                            "ov": true,
                            "value": "Business",
                            "lookupCode": "B",
                            "lookupRawValue": "B"
        }
                    ],
                    "StateProvince": [
                        {
                            "type": "configuration/entityTypes/Organization/attributes/Addresses/attributes/StateProvince",
                            "ov": true,
                            "value": "Ohio",
                            "lookupCode": "OH",
                            "lookupRawValue": "OH"
                        }
                    ],
                    "Country": [
                        {
                            "type": "configuration/entityTypes/Organization/attributes/Addresses/attributes/Country",
                            "ov": true,
                            "value": "United States",
                            "lookupCode": "US",
                            "lookupRawValue": "US"
                        }
                    ],
                    "AddressLine1": [
                        {
                            "type": "configuration/entityTypes/Organization/attributes/Addresses/attributes/AddressLine1",
                            "ov": true,
                            "value": "307 Powhatan Ave"
                        }
                    ],
                    "AddressLine2": [
                        {
                            "type": "configuration/entityTypes/Organization/attributes/Addresses/attributes/AddressLine2",
                            "ov": true,
                            "value": "LBS"
                        }
                    ],
                    "City": [
                        {
                            "type": "configuration/entityTypes/Organization/attributes/Addresses/attributes/City",
                            "ov": true,
                            "value": "Columbus"
                        }
                    ],
                    "Zip5": [
                        {
                            "type": "configuration/entityTypes/Organization/attributes/Addresses/attributes/Zip5",
                            "ov": true,
                            "value": "43204"
                        }
                    ],
                    "Zip4": [
                        {
                            "type": "configuration/entityTypes/Organization/attributes/Addresses/attributes/Zip4",
                            "ov": true,
                            "value": "1916"
                        }
                    ],
                    "VerificationStatus": [
                        {
                            "type": "configuration/entityTypes/Organization/attributes/Addresses/attributes/VerificationStatus",
                            "ov": true,
                            "value": "Verified"
                        }
                    ],
                    "VerificationStatusDetails": [
                        {
                            "type": "configuration/entityTypes/Organization/attributes/Addresses/attributes/VerificationStatusDetails",
                            "ov": true,
                            "value": "Address Verification Status is verified - a complete match was made between the input data and a single record from the available reference data.\nPost-Processed Verification Match Level is 4 - premise (premise or building).\nPre-Processed Verification Match Level is 4 - premise (premise or building).\nParsing Status isidentified and parsed - All input data has been able to be identified and placed into components.\nLexicon Identification Match Level is 4 - premise (premise or building).\nContext Identification Match Level is 4 - premise (premise or building).\nPostcode Status is PostalCodePrimary verified, PostalCodeSecondary added or changed - postalcodeprimary verified, postalcodesecondary added or changed.\nThe accuracy matchscore, which gives the similarity between the input data and closest reference data match is 100%."
                        }
                    ],
                    "AVC": [
                        {
                            "type": "configuration/entityTypes/Organization/attributes/Addresses/attributes/AVC",
                            "ov": true,
                            "value": "V44-I44-P7-100"
                        }
                    ],
                    "ISO3166-2": [
                        {
                            "type": "configuration/entityTypes/Organization/attributes/Addresses/attributes/ISO3166-2",
                            "ov": true,
                            "value": "US"
                        }
                    ],
                    "ISO3166-3": [
                        {
                            "type": "configuration/entityTypes/Organization/attributes/Addresses/attributes/ISO3166-3",
                            "ov": true,
                            "value": "USA"
                        }
                    ],
                    "ISO3166-N": [
                        {
                            "type": "configuration/entityTypes/Organization/attributes/Addresses/attributes/ISO3166-N",
                            "ov": true,
                            "value": "840"
                        }
                    ],
                    "Street": [
                        {
                            "type": "configuration/entityTypes/Organization/attributes/Addresses/attributes/Street",
                            "ov": true,
                            "value": "Powhatan Ave"
                        }
                    ],
                    "SubAdministrativeArea": [
                        {
                            "type": "configuration/entityTypes/Organization/attributes/Addresses/attributes/SubAdministrativeArea",
                            "ov": true,
                            "value": "Franklin"
                        }
                    ],
                    "Latitude": [
                        {
                            "type": "configuration/entityTypes/Organization/attributes/Addresses/attributes/Latitude",
                            "ov": true,
                            "value": "39.947910"
                        }
                    ],
                    "Longitude": [
                        {
                            "type": "configuration/entityTypes/Organization/attributes/Addresses/attributes/Longitude",
                            "ov": true,
                            "value": "-83.086160"
                        }
                    ],
                    "GeoAccuracy": [
                        {
                            "type": "configuration/entityTypes/Organization/attributes/Addresses/attributes/GeoAccuracy",
                            "ov": true,
                            "value": "P4"
                        }
                    ],
                    "Premise": [
                        {
                            "type": "configuration/entityTypes/Organization/attributes/Addresses/attributes/Premise",
                            "ov": true,
                            "value": "307"
                        }
                    ],
                    "PremiseNumber": [
                        {
                            "type": "configuration/entityTypes/Organization/attributes/Addresses/attributes/PremiseNumber",
                            "ov": true,
                            "value": "307"
                        }
                    ],
                    "DeliveryAddress": [
                        {
                            "type": "configuration/entityTypes/Organization/attributes/Addresses/attributes/DeliveryAddress",
                            "ov": true,
                            "value": "307 Powhatan Ave"
                        }
                    ],
                    "DeliveryAddress1": [
                        {
                            "type": "configuration/entityTypes/Organization/attributes/Addresses/attributes/DeliveryAddress1",
                            "ov": true,
                            "value": "307 Powhatan Ave"
                        }
      ]
    },
                "ov": true
            }
      ]
    },
    "crosswalks": [
      {
        "type": "configuration/sources/FDA",
        "value": "entities/OTmgEU2"
      }
    ]
  },
  {
    "type": "configuration/entityTypes/ProductGroup",
    "attributes": {
      "Name": [
        {
          "value": "Xylanol 650MG"
        }
      ],
      "Type": [
        {
          "value": "Strength"
        }
      ],
      "Status": [
        {
          "value": "Active"
        }
      ]
    },
    "crosswalks": [
      {
        "type": "configuration/sources/FDA",
        "value": "entities/TBd9w6m"
      }
    ]
  },
  {
    "type": "configuration/entityTypes/Substance",
    "attributes": {
      "Name": [
        {
          "value": "Diphenhydramine citrate"
        }
      ]
    },
    "crosswalks": [
      {
        "type": "configuration/sources/FDA",
        "value": "entities/OTmg5xW"
      }
    ]
  },
  {
    "type": "configuration/entityTypes/Substance",
    "attributes": {
      "Name": [
        {
          "value": "Acetaminophen"
        }
      ]
    },
    "crosswalks": [
      {
        "type": "Reltio",
        "value": "entities/OTmgADm"
      }
    ]
  },
  {
    "type": "configuration/entityTypes/MedicinalProduct",
    "attributes": {
      "Name": [
        {
          "value": "Xylanol PM Extra Strength Caplets 24 Count"
        }
      ],
      "Market": [
        {
          "value": "South America"
        }
      ],
      "BrandName": [
        {
          "value": "Xylanol"
        }
      ],
      "Type": [
        {
          "value": "Branded"
        }
      ],
      "ProductStrength": [
        {
          "value": {
            "NumeratorValue": [
              {
                "value": "500"
              }
            ],
            "NumeratorUnit": [
              {
                "value": "mg"
              }
            ],
            "DenominatorUnit": [
              {
                "value": "each"
              }
            ]
          }
        }
      ],
      "Identifiers": [
        {
          "value": {
            "Type": [
              {
                "value": "AUTO"
              }
            ],
            "ID": [
              {
                "value": "a94a8fe5-ccb1-5ba6-9c4c-0873d391e987"
              }
            ]
          }
        }
      ]
    },
    "crosswalks": [
      {
        "type": "configuration/sources/FDA",
        "value": "entities/HmnhbjM"
      }
    ]
  },
  {
    "type": "configuration/entityTypes/MedicinalProduct",
    "attributes": {
      "Name": [
        {
          "value": "Xylanol PM Extra Strength Caplets 24 Count"
        }
      ],
      "Market": [
        {
          "value": "European Union"
        }
      ],
      "BrandName": [
        {
          "value": "Xylanol"
        }
      ],
      "Type": [
        {
          "value": "Branded"
        }
      ],
      "ProductStrength": [
        {
          "value": {
            "NumeratorValue": [
              {
                "value": "500"
              }
            ],
            "NumeratorUnit": [
              {
                "value": "mg"
              }
            ],
            "DenominatorUnit": [
              {
                "value": "each"
              }
            ]
          }
        }
      ],
      "DoseForm": [
        {
          "value": "Caplet"
        }
      ],
      "Dose": [
        {
          "value": "2"
        }
      ],
      "IsPrescriptionProduct": [
        {
          "value": "true"
        }
      ],
      "Identifiers": [
        {
          "value": {
            "Type": [
              {
                "value": "AUTO"
              }
            ],
            "ID": [
              {
                "value": "a94a8fe5-ccb1-5ba6-9c4c-0873d391e987"
              }
            ]
          }
        }
      ]
    },
    "crosswalks": [
      {
        "type": "configuration/sources/FDA",
        "value": "entities/Hmndxpg"
      }
    ]
  },
  {
    "type": "configuration/entityTypes/Organization",
    "attributes": {
      "Name": [
        {
          "value": "Yohnson & Yohnson"
        }
      ],
      "Addresses":[
        {
          "value":{
            "AddressInput": [
                        {
                            "type": "configuration/entityTypes/Organization/attributes/Addresses/attributes/AddressInput",
                            "ov": true,
                            "value": "307 Powhatan Ave Columbus Ohio 43204 United States"
                        }
      ]
          }
        }
      ]
    },
    "crosswalks": [
      {
        "type": "configuration/sources/FDA",
        "value": "entities/OTmgIkI"
      }
    ]
  },
  {
    "type": "configuration/entityTypes/MedicinalProduct",
    "attributes": {
      "Name": [
        {
          "value": "Odvil PM tablets 200mg pain reliever"
        }
      ],
      "Market": [
        {
          "value": "European Union"
        }
      ],
      "BrandName": [
        {
          "value": "Odvil"
        }
      ],
      "ProductStrength": [
        {
          "value": {
            "NumeratorValue": [
              {
                "value": "200"
              }
            ],
            "NumeratorUnit": [
              {
                "value": "mg"
              }
            ],
            "DenominatorUnit": [
              {
                "value": "each"
              }
            ]
          }
        }
      ],
      "DoseForm": [
        {
          "value": "Tablet"
        }
      ],
      "Dose": [
        {
          "value": "1"
        }
      ],
      "PackageType": [
        {
          "value": "Carton"
        }
      ],
      "PackageCount": [
        {
          "value": "20"
        }
      ],
      "Commenters": [
        {
          "value": "gregg.casey@reltio.com"
        }
      ]
    },
    "crosswalks": [
      {
        "type": "configuration/sources/FDA",
        "value": "entities/UHPba8z"
      }
    ]
  },
  {
    "type": "configuration/entityTypes/ProductGroup",
    "attributes": {
      "Name": [
        {
          "value": "Xylanol"
        }
      ],
      "Type": [
        {
          "value": "Product Group"
        }
      ]
    },
    "crosswalks": [
      {
        "type": "configuration/sources/FDA",
        "value": "entities/cduB770"
      }
    ]
  },
  {
    "type": "configuration/entityTypes/MedicinalProduct",
    "attributes": {
      "Name": [
        {
          "value": "Xylanol PM Extra Strength Caplets 24 Count"
        }
      ],
      "Market": [
        {
          "value": "Eastern Europe"
        }
      ],
      "BrandName": [
        {
          "value": "Xylanol"
        }
      ],
      "Type": [
        {
          "value": "Branded"
        }
      ],
      "DoseForm": [
        {
          "value": "Caplet"
        }
      ],
      "Dose": [
        {
          "value": "2"
        }
      ],
      "IsPrescriptionProduct": [
        {
          "value": "true"
        }
      ],
      "Language": [
        {
          "value": "Armenian"
        }
      ],
      "Identifiers": [
        {
          "value": {
            "Type": [
              {
                "value": "AUTO"
              }
            ],
            "ID": [
              {
                "value": "a94a8fe5-ccb1-5ba6-9c4c-0873d391e987"
              }
            ]
          }
        }
      ]
    },
    "crosswalks": [
      {
        "type": "Reltio",
        "value": "entities/Uaq3n2i"
      }
    ]
  },
  {
    "type": "configuration/entityTypes/MedicinalProduct",
    "attributes": {
      "Name": [
        {
          "value": "Xylanol Detail Product"
        }
      ],
      "Market": [
        {
          "value": "Eastern Europe"
        }
      ],
      "Type": [
        {
          "value": "DETAIL PRODUCT"
        }
      ]
    },
    "crosswalks": [
      {
        "type": "Reltio",
        "value": "entities/W2lm1UT"
      }
    ]
  },
  {
    "type": "configuration/entityTypes/ProductGroup",
    "attributes": {
      "Name": [
        {
          "value": "Xylanol"
        }
      ],
      "Type": [
        {
          "value": "Brand"
        }
      ]
    },
    "crosswalks": [
      {
        "type": "Reltio",
        "value": "entities/VqAKwlB"
      }
    ]
  },
  {
    "type": "configuration/entityTypes/MedicinalProduct",
    "attributes": {
      "Name": [
        {
          "value": "Palbrowns Pain Reliever PM Extra Strength, Gel Cap"
        }
      ],
      "Market": [
        {
          "value": "North America"
        }
      ],
      "BrandName": [
        {
          "value": "Palbrowns"
        }
      ],
      "Type": [
        {
          "value": "Generic"
        }
      ],
      "DoseForm": [
        {
          "value": "Gel Cap"
        }
      ],
      "Dose": [
        {
          "value": "2"
        }
      ],
      "PackageType": [
        {
          "value": "Blister Pack"
        }
      ],
      "PackageCount": [
        {
          "value": "24"
        }
      ]
    },
    "crosswalks": [
      {
        "type": "Reltio",
        "value": "entities/cdi5vMc"
      }
    ]
  },
  {
    "type": "configuration/entityTypes/ProductGroup",
    "attributes": {
      "Name": [
        {
          "value": "Xylanol 650MG"
        },
        {
          "value": "Xylanol 325MG"
        }
      ],
      "Type": [
        {
          "value": "Strength"
        }
      ],
      "Status": [
        {
          "value": "Active"
        }
      ]
    },
    "crosswalks": [
      {
        "type": "configuration/sources/FDA",
        "value": "entities/TBd9w6m"
      }
    ]
  },
  {
    "type": "configuration/entityTypes/MedicinalProduct",
    "attributes": {
      "Name": [
        {
          "value": "Xylanol PM Extra Strength Blister Pack 48 Count"
        }
      ],
      "Market": [
        {
          "value": "Asia Pacific"
        }
      ],
      "BrandName": [
        {
          "value": "Xylanol"
        }
      ],
      "Type": [
        {
          "value": "Branded"
        }
      ],
      "Dose": [
        {
          "value": "2"
        }
      ],
      "PackageType": [
        {
          "value": "Blister Pack"
        }
      ],
      "PackageCount": [
        {
          "value": "28"
        }
      ]
    },
    "crosswalks": [
      {
        "type": "configuration/sources/FDA",
        "value": "entities/cdi4cNi"
      }
    ]
  },
  {
    "type": "configuration/entityTypes/ProductGroup",
    "attributes": {
      "Name": [
        {
          "value": "Xylanol"
        }
      ],
      "Type": [
        {
          "value": "Product Group"
        }
      ]
    },
    "crosswalks": [
      {
        "type": "Reltio",
        "value": "entities/cduB770"
      }
    ]
  },
  {
    "type": "configuration/entityTypes/MedicinalProduct",
    "attributes": {
      "Name": [
        {
          "value": "Xylanol PM Extra Strength Caplets 24 Count"
        }
      ],
      "Market": [
        {
          "value": "North America"
        }
      ],
      "BrandName": [
        {
          "value": "Xylanol"
        }
      ],
      "GenericName": [
        {
          "value": "Acetaminophen"
        }
      ],
      "Type": [
        {
          "value": "Branded"
        }
      ],
      "ProductStrength": [
        {
          "value": {
            "NumeratorValue": [
              {
                "value": "500"
              }
            ],
            "NumeratorUnit": [
              {
                "value": "mg"
              }
            ],
            "DenominatorUnit": [
              {
                "value": "each"
              }
            ]
          }
        },
        {
          "value": {
            "NumeratorValue": [
              {
                "value": "500"
              }
            ],
            "NumeratorUnit": [
              {
                "value": "mg"
              }
            ],
            "DenominatorUnit": [
              {
                "value": "each"
              }
            ]
          }
        }
      ],
      "DoseForm": [
        {
          "value": "Caplet"
        }
      ],
      "Dose": [
        {
          "value": "2"
        }
      ],
      "PackageType": [
        {
          "value": "Carton"
        }
      ],
      "PackageCount": [
        {
          "value": "24"
        }
      ],
      "PackageHeight": [
        {
          "value": {
            "UnitOfMeasure": [
              {
                "value": "Centimeter"
              }
            ],
            "Value": [
              {
                "value": "5"
              }
            ]
          }
        }
      ],
      "Indication": [
        {
          "value": {
            "Type": [
              {
                "value": "minor aches"
              }
            ],
            "Language": [
              {
                "value": "English"
              }
            ],
            "RegulatoryApprovalDate": [
              {
                "value": "1956-05-09T00:00:00.000+0000"
              }
            ],
            "MarketAuthorizationNumber": [
              {
                "value": "1234567"
              }
            ],
            "MarketingAuthorizationDate": [
              {
                "value": "1956-05-11T00:00:00.000+0000"
              }
            ]
          }
        },
        {
          "value": {
            "Type": [
              {
                "value": "backache"
              }
            ],
            "Language": [
              {
                "value": "English"
              }
            ],
            "RegulatoryApprovalDate": [
              {
                "value": "1956-05-09T00:00:00.000+0000"
              }
            ],
            "MarketAuthorizationNumber": [
              {
                "value": "123456"
              }
            ],
            "MarketingAuthorizationDate": [
              {
                "value": "1956-05-11T00:00:00.000+0000"
              }
            ]
          }
        },
        {
          "value": {
            "Type": [
              {
                "value": "headache"
              }
            ],
            "Language": [
              {
                "value": "English"
              }
            ],
            "RegulatoryApprovalDate": [
              {
                "value": "1956-05-09T00:00:00.000+0000"
              }
            ],
            "MarketingAuthorizationDate": [
              {
                "value": "1956-05-12T00:00:00.000+0000"
              }
            ]
          }
        },
        {
          "value": {
            "Type": [
              {
                "value": "pain"
              }
            ],
            "Language": [
              {
                "value": "English"
              }
            ],
            "RegulatoryApprovalDate": [
              {
                "value": "1956-05-09T00:00:00.000+0000"
              }
            ],
            "MarketAuthorizationNumber": [
              {
                "value": "123456"
              }
            ],
            "MarketingAuthorizationDate": [
              {
                "value": "1956-05-11T00:00:00.000+0000"
              }
            ]
          }
        }
      ],
      "IsPrescriptionProduct": [
        {
          "value": "false"
        }
      ],
      "Identifiers": [
        {
          "value": {
            "Type": [
              {
                "value": "APPT"
              }
            ],
            "Status": [
              {
                "value": "Active"
              }
            ],
            "DeactivationReasonCode": [
              {
                "value": "26"
              }
            ],
            "ID": [
              {
                "value": "1234-4324"
              }
            ]
          }
        }
      ],
      "PackageWeight": [
        {
          "value": {
            "UnitOfMeasure": [
              {
                "value": "gram"
              }
            ],
            "Value": [
              {
                "value": "3"
              }
            ]
          }
        }
      ],
      "Pricing": [
        {
          "value": {
            "Type": [
              {
                "value": "AWP"
              }
            ],
            "Price": [
              {
                "value": "20.52"
              }
            ],
            "Currency": [
              {
                "value": "USD"
              }
            ]
          }
        }
      ]
    },
    "crosswalks": [
      {
        "type": "configuration/sources/FDA",
        "value": "entities/UHPbifV"
      }
    ]
  },
  {
    "type": "configuration/entityTypes/ProductGroup",
    "attributes": {
      "Name": [
        {
          "value": "Xylanol 650MG"
        },
        {
          "value": "Xylanol 325MG"
        }
      ],
      "Type": [
        {
          "value": "Strength"
        }
      ],
      "Status": [
        {
          "value": "Active"
        }
      ]
    },
    "crosswalks": [
      {
        "type": "configuration/sources/FDA",
        "value": "entities/TBd9w6m"
      }
    ]
  },
  {
    "type": "configuration/entityTypes/ProductGroup",
    "attributes": {
      "Name": [
        {
          "value": "Xylanol"
        }
      ],
      "Type": [
        {
          "value": "Brand"
        }
      ]
    },
    "crosswalks": [
      {
        "type": "Reltio",
        "value": "entities/VqAKwlB"
      }
    ]
  },
  {
    "type": "configuration/entityTypes/MedicinalProduct",
    "attributes": {
      "Name": [
        {
          "value": "Xylanol PM Extra Strength Blister Pack 48 Count"
        }
      ],
      "Market": [
        {
          "value": "Asia Pacific"
        }
      ],
      "BrandName": [
        {
          "value": "Xylanol"
        }
      ],
      "Type": [
        {
          "value": "Branded"
        }
      ],
      "Dose": [
        {
          "value": "2"
        }
      ],
      "PackageType": [
        {
          "value": "Blister Pack"
        }
      ],
      "PackageCount": [
        {
          "value": "28"
        }
      ]
    },
    "crosswalks": [
      {
        "type": "configuration/sources/FDA",
        "value": "entities/cdi4cNi"
      }
    ]
  },
  [
    {
      "type": "configuration/entityTypes/MedicinalProduct",
      "attributes": {
        "Name": [
          {
            "value": "KETOCONAZOLE,TAB,200MG,30 0994-30"
          }
        ],
        "DoseForm": [
          {
            "value": "TABLET"
          }
        ],
        "PackageCount": [
          {
            "value": "30"
          }
        ],
        "IsInternalProduct": [
          {
            "value": "N"
          }
        ],
        "AlternateName": [
          {
            "value": {
              "Name": [
                {
                  "value": "KETOCONAZOLE 200MG TABLET 30"
                }
              ]
            }
          }
        ],
        "ProductStatus": [
          {
            "value": "ACTIVE"
          }
        ]
      },
      "crosswalks": [
        {
          "type": "configuration/sources/FDA",
          "value": "entities/SD5zSI6"
        }
      ]
    },
    {
      "type": "configuration/entityTypes/MedicinalProduct",
      "attributes": {
        "Name": [
          {
            "value": "KETOCONAZOLE,TAB,200MG,30 0994-30"
          }
        ],
        "DoseForm": [
          {
            "value": "TABLET"
          }
        ],
        "PackageCount": [
          {
            "value": "30"
          }
        ],
        "IsInternalProduct": [
          {
            "value": "N"
          }
        ],
        "AlternateName": [
          {
            "value": {
              "Name": [
                {
                  "value": "KETOCONAZOLE 200MG TABLET 30"
                }
              ]
            }
          }
        ],
        "ProductStatus": [
          {
            "value": "ACTIVE"
          }
        ]
      },
      "crosswalks": [
        {
          "type": "configuration/sources/FDA",
          "value": "entities/SD5zSI6"
        }
      ]
    }
  ]
]