{
    "id": "com.reltio.plugins.activities",
    "name": "Activities",
    "version": "1.0.0",
    "provider-name": "Reltio.com",
    "requirements": [
        "com.reltio.plugins.ui"
    ],
    "session": [
        "com.reltio.plugins.activities.session.MActivities"
    ],
    "extensions": [
        {
            "point": "com.reltio.plugins.ui.configuration",
            "id": "com.reltio.plugins.activities.config",

            "types": {
                "dataload": {
                    "label": "Data load",
                    "icon": "https://reltio.images.s3.amazonaws.com/ui/activities/entity-dataload.png"
                },
                "ENTITY_CHANGED": {
                    "label": "Profile {Entity: $.objectUri, $.objectLabel} was changed",
                    "icon": "https://reltio.images.s3.amazonaws.com/ui/activities/entity-update.png"
                },
                "ENTITY_UPDATED": {
                    "label": "Profile {Entity: $.objectUri, $.objectLabel} was changed",
                    "icon": "https://reltio.images.s3.amazonaws.com/ui/activities/entity-update.png"
                },
                "ENTITY_REMOVED": {
                    "label": "Profile {Entity: $.objectUri, $.objectLabel} was removed",
                    "icon": "https://reltio.images.s3.amazonaws.com/ui/activities/entity-remove.png"
                },
                "ENTITY_CREATED": {
                    "label": "Profile {Entity: $.objectUri, $.objectLabel} was created",
                    "icon": "https://reltio.images.s3.amazonaws.com/ui/activities/entity-create.png"
                },
                "ENTITIES_MERGED_MANUALLY": {
                    "label": [
                        "Profile {Entity: $.objectUri, $.objectLabel} was merged manually with ",
                        {
                            "forEach": {"text": "{$.data.potentialMatches}", "split": ","},
                            "text": "{Entity: $variable, $.data.$variable}"
                        }
                    ],
                    "icon": "https://reltio.images.s3.amazonaws.com/ui/activities/entity-merge.png"
                },
                "ENTITIES_MERGED": {
                    "label": [
                        "Profile {Entity: $.objectUri, $.objectLabel} was merged automatically with ",
                        {
                            "forEach": {"text": "{$.data.potentialMatches}", "split": ","},
                            "text": "{Entity: $variable, $.data.$variable}"
                        }
                    ],
                    "icon": "https://reltio.images.s3.amazonaws.com/ui/activities/entity-merge.png"
                },
                "ENTITIES_MERGED_ON_THE_FLY": {
                    "label": "Profile {Entity: $.objectUri, $.objectLabel} was merged on the fly",
                    "icon": "https://reltio.images.s3.amazonaws.com/ui/activities/entity-merge.png"
                },
                "ENTITY_LOST_MERGE": {
                    "label": "Profile {Entity: $.objectUri, $.objectLabel} lost merge",
                    "icon": "https://reltio.images.s3.amazonaws.com/ui/activities/entity-split.png"
                },
                "ENTITIES_SPLITTED": {
                    "label": "Profile {Entity: $.objectUri, $.objectLabel} was un-merged",
                    "icon": "https://reltio.images.s3.amazonaws.com/ui/activities/entity-split.png"
                },
                "ENTITIES_CATEGORY_TREE_STRUCTURE_CHANGED": {
                    "label": "Category tree structure was changed",
                    "icon": "https://reltio.images.s3.amazonaws.com/ui/activities/entity-update.png"
                },
                "RELATIONSHIP_CHANGED": {
                    "label": "Relationship from {Entity: $.startObjectUri, $.startObjectLabel} to {Entity: $.endObjectUri, $.endObjectLabel} was changed",
                    "icon": "https://reltio.images.s3.amazonaws.com/ui/activities/relationship-update.png"
                },
                "RELATIONSHIP_REMOVED": {
                    "label": "Relationship from {Entity: $.startObjectUri, $.startObjectLabel} to {Entity: $.endObjectUri, $.endObjectLabel} was removed",
                    "icon": "https://reltio.images.s3.amazonaws.com/ui/activities/relationship-remove.png"
                },
                "RELATIONSHIP_CREATED": {
                    "label": "Relationship from {Entity: $.startObjectUri, $.startObjectLabel} to {Entity: $.endObjectUri, $.endObjectLabel} was created",
                    "icon": "https://reltio.images.s3.amazonaws.com/ui/activities/relationship-create.png"
                },
                "RELATIONSHIP_LOST_MERGE": {
                    "label": "Relationship from {Entity: $.startObjectUri, $.startObjectLabel} to {Entity: $.endObjectUri, $.endObjectLabel} lost merge",
                    "icon": "https://reltio.images.s3.amazonaws.com/ui/activities/relationship-split.png"
                },
                "POTENTIAL_MATCHES_FOUND": {
                    "label": [
                        "Potential matches for profile {Entity: $.objectUri, $.objectLabel} were found: ",
                        {
                            "forEach": {"text": "{$.data.potentialMatches}", "split": ","},
                            "text": "{Entity: $variable, $.data.$variable}"
                        }
                    ],
                    "icon": "https://reltio.images.s3.amazonaws.com/ui/activities/matches-search.png"
                },
                "POTENTIAL_MATCHES_REMOVED": {
                    "label": "Potential matches were removed",
                    "icon": "https://reltio.images.s3.amazonaws.com/ui/activities/matches-remove.png"
                },
                "GROUP_CHANGED": {
                    "label": "Group was changed",
                    "icon": "https://reltio.images.s3.amazonaws.com/ui/activities/group-update.png"
                },
                "GROUP_REMOVED": {
                    "label": "Group was removed",
                    "icon": "https://reltio.images.s3.amazonaws.com/ui/activities/group-remove.png"
                },
                "GROUP_CREATED": {
                    "label": "Group was created",
                    "icon": "https://reltio.images.s3.amazonaws.com/ui/activities/group-create.png"
                },
                "INTERACTION_CHANGED": {
                    "label": "Interaction was changed",
                    "icon": "https://reltio.images.s3.amazonaws.com/ui/activities/interaction-update.png"
                },
                "INTERACTION_REMOVED": {
                    "label": "Interaction was removed",
                    "icon": "https://reltio.images.s3.amazonaws.com/ui/activities/interaction-remove.png"
                },
                "INTERACTION_CREATED": {
                    "label": "Interaction was created",
                    "icon": "https://reltio.images.s3.amazonaws.com/ui/activities/interaction-create.png"
                },
                "MODEL_UPDATED": {
                    "label": "Model was updated",
                    "icon": "https://reltio.images.s3.amazonaws.com/ui/activities/model.png"
                },
                "PERIODIC_TASK_SCHEDULED": {
                    "label": "Periodic task was scheduled",
                    "icon": "https://reltio.images.s3.amazonaws.com/ui/activities/task.png"
                },
                "USER_LOGIN": {
                    "label": "Logged in",
                    "icon": "https://reltio.images.s3.amazonaws.com/ui/activities/user-login.png"
                },
                "USER_LOGOUT": {
                    "label": "Logged out",
                    "icon": "https://reltio.images.s3.amazonaws.com/ui/activities/user-logout.png"
                },
                "USER_SEARCH": {
                    "label": "Search",
                    "icon": "https://reltio.images.s3.amazonaws.com/ui/activities/user-search.png"
                },
                "USER_PROFILE_VIEW": {
                    "label": "Profile view: {Entity: $.description.uri, $.description.label}",
                    "icon": "https://reltio.images.s3.amazonaws.com/ui/activities/user-profile-view.png"
                },
                "CATEGORY_PROFILE_VIEW": {
                    "label": "Category profile: {Category: $.description.uri, $.description.label}",
                    "icon": "https://reltio.images.s3.amazonaws.com/ui/activities/user-category-view.png"
                },
                "LOOKUPS_CHANGED": {
                    "label": "Lookups were changed",
                    "icon": "https://reltio.images.s3.amazonaws.com/ui/activities/default-activity.png"
                },
                "LOOKUPS_REMOVED": {
                    "label": "Lookups were removed",
                    "icon": "https://reltio.images.s3.amazonaws.com/ui/activities/default-activity.png"
                },
                "TENANT_UPDATED": {
                    "label": "Tenant was updated",
                    "icon": "https://reltio.images.s3.amazonaws.com/ui/activities/default-activity.png"
                },
                "TENANT_RECREATED": {
                    "label": "Tenant was recreated",
                    "icon": "https://reltio.images.s3.amazonaws.com/ui/activities/default-activity.png"
                },
                "NOT_MATCHES_SET": {
                    "label": [
                        "Not-matches for profile {Entity: $.objectUri, $.objectLabel} were set: ",
                        {
                            "forEach": {"text": "{$.data.potentialMatches}", "split": ","},
                            "text": "{Entity: $variable, $.data.$variable}"
                        }
                    ],
                    "icon": "https://reltio.images.s3.amazonaws.com/ui/activities/default-activity.png"
                },
                "NOT_MATCHES_RESET": {
                    "label": [
                        "Not-matches for profile {Entity: $.objectUri, $.objectLabel} were reset: ",
                        {
                            "forEach": {"text": "{$.data.potentialMatches}", "split": ","},
                            "text": "{Entity: $variable, $.data.$variable}"
                        }
                    ],
                    "icon": "https://reltio.images.s3.amazonaws.com/ui/activities/default-activity.png"
                }
            }
        },
        {
            "point": "com.reltio.plugins.ui.view",
            "id": "com.reltio.plugins.activities.ActivitiesView",
            "class": "com.reltio.plugins.activities.ActivitiesView",
            "exportTypes": ["json", "csv"],
            "caption": "Activity log",
            "activitiesOnPage": 25,
            "itemsOnActivity": 20,
            "deltasOnItem": 3
        },

        {
            "point": "com.reltio.plugins.ui.action",
            "id": "com.reltio.plugins.activities.ActivityLogAction",
            "class": "com.reltio.plugins.ui.actions.Action",
            "icon": "com/reltio/icons/side-panel/icon-activity-log.png",
            "selectedIcon": "com/reltio/icons/side-panel/icon-activity-log-sel.png",
            "type": "com.reltio.plugins.ui.side_action",
            "parent": "com.reltio.plugins.EntityAction",
            "position": 100,
            "perspective": "com.reltio.plugins.activities.ProfileActivitiesPerspective",
            "label": "Activity Log"
        },
        {
            "point": "com.reltio.plugins.ui.view",
            "id": "com.reltio.plugins.activities.ProfileActivitiesView",
            "class": "com.reltio.plugins.activities.ProfileActivitiesView",
            "exportTypes": ["json", "csv"],
            "caption": "Activity log",
            "activitiesOnPage": 25,
            "itemsOnActivity": 20,
            "deltasOnItem": 3
        },
        {
            "point": "com.reltio.plugins.ui.perspective",
            "id": "com.reltio.plugins.activities.ProfileActivitiesPerspective",
            "class": "com.reltio.plugins.ui.Perspective",
            "header": "com.reltio.plugins.entity.EntityHeader",
            "layout":
            {
                "layout": "scroll",
                "items": [
                    {
                        "maxWidth": 960,
                        "layout":"vbox",
                        "items":[
                            {
                                "view": "com.reltio.plugins.activities.ProfileActivitiesView",
                                "margin":[0, 0, 0, 10]
                            }
                        ]
                    }
                ]
            }
        }
    ]
}