{
    "id": "com.reltio.plugins.category",
    "name": "Category Perspective",
    "version": "1.0.0",
    "activator": "com.reltio.plugins.entity.categories.Activator",
    "provider-name": "Reltio.com",
    "requirements": ["com.reltio.plugins.entity"],
    "extensions": [
        {
            "point": "com.reltio.plugins.ui.action",
            "id": "com.reltio.plugins.categories.CreateCategoryAction",
            "class": "com.reltio.plugins.entity.categories.CreateCategoryAction",
            "label": "Create Category",
            "type": "com.reltio.plugins.ui.first_level_action",
            "parent": "com.reltio.plugins.MoreActionFolder",
            "perspective": "com.reltio.plugins.category.perspectives.CreateCategory",
            "show-nodes": true
        },
        {
            "point": "com.reltio.plugins.ui.view",
            "id": "com.reltio.plugins.categories.ProfileView",
            "class": "com.reltio.plugins.entity.categories.CategoryProfileView"
        },
        {
            "point": "com.reltio.plugins.ui.view",
            "id": "com.reltio.plugins.categories.CreateProfileView",
            "class": "com.reltio.plugins.entity.categories.CreateCategoryProfileView"
        },
        {
            "point": "com.reltio.plugins.ui.view",
            "id": "com.reltio.plugins.category.side.SearchView",
            "class": "com.reltio.plugins.entity.categories.CategorySearchPanel"
        },
        {
            "point": "com.reltio.plugins.ui.perspectivePart",
            "id": "com.reltio.plugins.categories.CategorySidePanel",
            "class": "com.reltio.plugins.ui.PerspectivePart",
            "layout":
            {
                "layout": "tabs",
                "items": [
                    {
                        "label": "Search",
                        "layout": "scroll",
                        "items": [
                            {"view" : "com.reltio.plugins.category.side.SearchView"}
                        ]
                    }
                ]
            }
        },
        {
            "point": "com.reltio.plugins.ui.perspective",
            "id": "com.reltio.plugins.category.perspectives.Category",
            "class": "com.reltio.plugins.ui.Perspective",
            "side": "com.reltio.plugins.categories.CategorySidePanel",
            "layout": {

                "layout": "scroll",
                "items": [
                    {
                        "layout": "hbox",
                        "padding": [0, 10, 0, 0],
                        "items": [
                            {
                                "width": "100%",
                                "layout": "vbox",
                                "items": [
                                    {"view": "com.reltio.plugins.categories.ProfileView"}
                                ]
                            }
                        ]
                    }
                ],

                "margin": [0, 14, 14, 7]
            }
        },
        {
            "point": "com.reltio.plugins.ui.perspective",
            "id": "com.reltio.plugins.category.perspectives.CreateCategory",
            "class": "com.reltio.plugins.ui.Perspective",
            "side": "com.reltio.plugins.categories.CategorySidePanel",
            "layout": {
                "layout": "scroll",
                "items": [
                    {
                        "layout": "hbox",
                        "padding": [0, 10, 0, 0],
                        "items": [
                            {
                                "width": "100%",
                                "layout": "vbox",
                                "items": [
                                    {"view": "com.reltio.plugins.categories.CreateProfileView"}
                                ]
                            }
                        ]
                    }
                ],

                "margin": [0, 14, 14, 7]
            }
        }
    ]
}