{
    "id": "com.reltio.plugins.ui",
    "name": "Main UI plugin",
    "version": "1.0.0",
    "provider-name": "Reltio.com",
    "activator": "com.reltio.plugins.ui.Activator",
    "extension-points": [
        {
            "id": "com.reltio.plugins.ui.action",
            "name": "Menu Item",
            "type": "com.reltio.plugins.ui.actions.IAction"
        },
        {
            "id": "com.reltio.plugins.ui.toolbar_item",
            "name": "Toolbar Item",
            "type": "com.reltio.plugins.ui.IToolbarItem"
        },
        {
            "id": "com.reltio.plugins.ui.about_part",
            "name": "About Dialog Part",
            "type": "com.reltio.plugins.ui.IAboutDialogPart"
        },
        {
            "id": "com.reltio.plugins.ui.perspectivePart",
            "name": "PerspectivePart",
            "type": "com.reltio.plugins.ui.IPerspectivePart"
        },
        {
            "id": "com.reltio.plugins.ui.perspective",
            "name": "Perspective",
            "type": "com.reltio.plugins.ui.IPerspective"
        },
        {
            "id": "com.reltio.plugins.ui.view",
            "name": "View",
            "type": "com.reltio.plugins.ui.IView"
        },
        {
            "id": "com.reltio.plugins.ui.configuration",
            "name": "Configuration"
        },
        {
            "type": "com.reltio.plugins.ui.ICustomScript", 
            "id": "com.reltio.plugins.ui.custom_script", 
            "name": "Custom Script"
        }
    ],

    "default-perspective": "com.reltio.plugins.search.SearchPerspective",
    "top-logo": "com/reltio/icons/head/reltio-logo.png",
    "enableCollaboration": true,

    "extensions": [
        {
            "point": "com.reltio.plugins.ui.about_part",
            "id": "com.reltio.plugins.ui.AboutDialogPart",
            "class": "com.reltio.plugins.ui.AboutDialogPart"
        }
    ]
}