{
   "id": "com.reltio.plugins.organization",
   "name": "Organization Perspective",
   "version": "1.0.0",
   "provider-name": "Reltio.com",
   "requirements": [
      "com.reltio.plugins.entity"
   ],
   "extensions": [
      {
         "point": "com.reltio.plugins.ui.view",
         "id": "com.reltio.plugins.entity.org.OrganizationView",
         "class": "com.reltio.plugins.entity.attributes.AttributesView",
         "attributesCount": 9,
         "excludeUris": [
            "configuration/entityTypes/Organization/attributes/ImageLinks",
            "configuration/entityTypes/Organization/attributes/VideoLinks"
         ]
      },
      {
         "point": "com.reltio.plugins.ui.view",
         "id": "com.reltio.plugins.entity.org.LegalTreeView",
         "class": "com.reltio.plugins.entity.TreeView",
         "caption": "Legal Entities",
         "graph": {
            "type": "configuration/graphTypes/CompanyHierarchy",
            "layout": 25,
            "deep": 2,
            "limit": 300
         }
      },
      {
         "class": "com.reltio.plugins.entity.attributes.AttributesView",
         "id": "com.reltio.plugins.entity.org.attributes.AttributeView",
         "point": "com.reltio.plugins.ui.view"
      },
      {
         "point": "com.reltio.plugins.ui.view",
         "id": "com.reltio.plugins.org.ManufacturedProducts",
         "class": "com.reltio.plugins.entity.relations.RelationsView",
         "caption": "Manufactured Products",
         "content": {
            "outRelations": [
               "configuration/relationTypes/HasManufacturer"
            ],
            "entityTypes": [
               "configuration/entityTypes/Product"
            ]
         }
      },
      {
         "point": "com.reltio.plugins.ui.view",
         "id": "com.reltio.plugins.org.MarketedProducts",
         "class": "com.reltio.plugins.entity.relations.RelationsView",
         "caption": "Marketed Products",
         "content": {
            "outRelations": [
               "configuration/relationTypes/isMarketingHolder"
            ],
            "entityTypes": [
               "configuration/entityTypes/Product"
            ]
         }
      },
      {
         "point": "com.reltio.plugins.ui.view",
         "id": "com.reltio.plugins.org.RegulatedProducts",
         "class": "com.reltio.plugins.entity.relations.RelationsView",
         "caption": "Regulated Products",
         "content": {
            "outRelations": [
               "configuration/relationTypes/isRegulator"
            ],
            "entityTypes": [
               "configuration/entityTypes/Product"
            ]
         }
      },
      {
         "point": "com.reltio.plugins.ui.view",
         "id": "com.reltio.plugins.org.RegulatedAuthorityProducts",
         "class": "com.reltio.plugins.entity.relations.RelationsView",
         "caption": "Regulated Authority Products",
         "content": {
            "outRelations": [
               "configuration/relationTypes/isRegulator"
            ],
            "entityTypes": [
               "configuration/entityTypes/Product"
            ]
         }
      },
      {
         "point": "com.reltio.plugins.ui.view",
         "id": "com.reltio.plugins.entity.SingleImageAttributeView",
         "class": "com.reltio.plugins.entity.attributes.ImageAttributeView",
         "caption": "Standalone Image Attribute View",
         "attributeUri": "configuration/entityTypes/Organization/attributes/ImageGallery",
         "max" : 5
      },
      {
         "point": "com.reltio.plugins.ui.perspective",
         "id": "com.reltio.plugins.entity.org.OrgPerspective",
         "class": "com.reltio.plugins.ui.Perspective",
         "entity-type": "configuration/entityTypes/Organization",
         "maxWidth": 1260,
         "header": "com.reltio.plugins.entity.EntityHeader",
         "side": "com.reltio.plugins.entity.EntitySidePanel",
         "layout": {
            "layout": "scroll",
            "items": [
               {
                  "layout": "hbox",
                  "padding": [0, 10, 0, 0],
                  "items": [
                     {
                        "width": "66.6%",
                        "layout": "vbox",
                        "items": [
						   {
							  "view": "com.reltio.plugins.workflow.tasks.ReviewEntityWorkflowTasksContainer", 
							  "margin": [2, 7, 14, 0]
						   },
                           {
                              "view": "com.reltio.plugins.entity.categories.CategoriesPathView",
                              "margin": [2, 7, 12, 0]
                           },
                           {
                              "view": "com.reltio.plugins.entity.org.attributes.AttributeView",
                              "margin": [2, 7, 14, 0]
                           },
                           {
                              "view": "com.reltio.plugins.org.ManufacturedProducts",
                              "margin": [2, 7, 14, 0]
                           }
                        ]
                     },
                     {
                        "width": "33.3%",
                        "layout": "vbox",
                        "items": [
                           {
                              "view": "com.reltio.plugins.entity.PotentialMatchesView",
                              "margin": [2, 0, 12, 7]
                           },
                           {
                              "view": "com.reltio.plugins.entity.org.LegalTreeView",
                              "margin": [2, 0, 12, 7]
                           },
                           {
                              "view": "com.reltio.plugins.org.MarketedProducts",
                              "margin": [2, 0, 12, 7]
                           },
                           {
                              "view": "com.reltio.plugins.org.RegulatedProducts",
                              "margin": [2, 0, 12, 7]
                           },
                           {
                              "view": "com.reltio.plugins.org.RegulatedAuthorityProducts",
                              "margin": [2, 0, 12, 7]
                           }
                        ]
                     }
                  ]
               }
            ]
         }
      },
      {
         "point": "com.reltio.plugins.ui.preview.perspective",
         "id": "com.reltio.plugins.entity.org.preview.OrgPerspective",
         "class": "com.reltio.plugins.ui.Perspective",
         "entity-type": "configuration/entityTypes/Organization",
         "maxWidth": 1260,
         "header": "com.reltio.plugins.entity.EntityHeader",
         "layout": {
            "layout": "scroll",
            "items": [
               {
                  "view": "com.reltio.plugins.entity.org.OrganizationView",
                  "margin": [0, 4, 4, 4],
                  "width": "100%"
               }
            ]
         }
      }
   ]
}