[
  {
    "type": "rdm/lookupTypes/App-LSProduct360MarketingStatus",
    "tenantId": "{{rdmTenant}}",
    "code": "ACT",
    "enabled": true,
    "sourceMappings": [
      {
        "source": "ReltioRDM",
        "values": [
          {
            "code": "ACT",
            "value": "Active",
            "enabled": true,
            "canonicalValue": true,
            "downStreamDefaultValue": true
          }
        ]
      },
      {
        "source": "Reltio",
        "values": [
          {
            "code": "ACT",
            "value": "Active",
            "enabled": true,
            "canonicalValue": false,
            "downStreamDefaultValue": true
          }
        ]
      }
    ]
  },
  {
    "type": "rdm/lookupTypes/App-LSProduct360MarketingStatus",
    "tenantId": "{{rdmTenant}}",
    "code": "SUS",
    "enabled": true,
    "sourceMappings": [
      {
        "source": "ReltioRDM",
        "values": [
          {
            "code": "SUS",
            "value": "Suspended",
            "enabled": true,
            "canonicalValue": true,
            "downStreamDefaultValue": true
          }
        ]
      },
      {
        "source": "Reltio",
        "values": [
          {
            "code": "SUS",
            "value": "Suspended",
            "enabled": true,
            "canonicalValue": false,
            "downStreamDefaultValue": true
          }
        ]
      }
    ]
  },
  {
    "type": "rdm/lookupTypes/App-LSProduct360MarketingStatus",
    "tenantId": "{{rdmTenant}}",
    "code": "EXP",
    "enabled": true,
    "sourceMappings": [
      {
        "source": "ReltioRDM",
        "values": [
          {
            "code": "EXP",
            "value": "Expired",
            "enabled": true,
            "canonicalValue": true,
            "downStreamDefaultValue": true
          }
        ]
      },
      {
        "source": "Reltio",
        "values": [
          {
            "code": "EXP",
            "value": "Expired",
            "enabled": true,
            "canonicalValue": false,
            "downStreamDefaultValue": true
          }
        ]
      }
    ]
  },
  {
    "type": "rdm/lookupTypes/App-LSProduct360MarketingStatus",
    "tenantId": "{{rdmTenant}}",
    "code": "RVKD",
    "enabled": true,
    "sourceMappings": [
      {
        "source": "ReltioRDM",
        "values": [
          {
            "code": "RVKD",
            "value": "Revoked",
            "enabled": true,
            "canonicalValue": true,
            "downStreamDefaultValue": true
          }
        ]
      },
      {
        "source": "Reltio",
        "values": [
          {
            "code": "RVKD",
            "value": "Revoked",
            "enabled": true,
            "canonicalValue": false,
            "downStreamDefaultValue": true
          }
        ]
      }
    ]
  }
]
