[
  {
    "type": "rdm/lookupTypes/App-LSProduct360ProductNameType",
    "tenantId": "{{rdmTenant}}",
    "code": "EST",
    "enabled": true,
    "sourceMappings": [
      {
        "source": "ReltioRDM",
        "values": [
          {
            "code": "EST",
            "value": "Established",
            "enabled": true,
            "canonicalValue": true,
            "downStreamDefaultValue": true
          }
        ]
      },
      {
        "source": "Reltio",
        "values": [
          {
            "code": "EST",
            "value": "Established",
            "enabled": true,
            "canonicalValue": false,
            "downStreamDefaultValue": true
          }
        ]
      }
    ]
  },
  {
    "type": "rdm/lookupTypes/App-LSProduct360ProductNameType",
    "tenantId": "{{rdmTenant}}",
    "code": "PRI",
    "enabled": true,
    "sourceMappings": [
      {
        "source": "ReltioRDM",
        "values": [
          {
            "code": "PRI",
            "value": "Primary",
            "enabled": true,
            "canonicalValue": true,
            "downStreamDefaultValue": true
          }
        ]
      },
      {
        "source": "Reltio",
        "values": [
          {
            "code": "PRI",
            "value": "Primary",
            "enabled": true,
            "canonicalValue": false,
            "downStreamDefaultValue": true
          }
        ]
      }
    ]
  },
  {
    "type": "rdm/lookupTypes/App-LSProduct360ProductNameType",
    "tenantId": "{{rdmTenant}}",
    "code": "OTH",
    "enabled": true,
    "sourceMappings": [
      {
        "source": "ReltioRDM",
        "values": [
          {
            "code": "OTH",
            "value": "Other",
            "enabled": true,
            "canonicalValue": true,
            "downStreamDefaultValue": true
          }
        ]
      },
      {
        "source": "Reltio",
        "values": [
          {
            "code": "OTH",
            "value": "Other",
            "enabled": true,
            "canonicalValue": false,
            "downStreamDefaultValue": true
          }
        ]
      }
    ]
  }
]
